R语言解决矩阵距离的问题 | Leo Lee
…
13
14
15
16
17
18
19
20
21
22
23
24
25

#> # A tibble: 500 x 4
#> # Groups:   rowA [500]
#>     matA  rowA  matB  rowB
#>    <chr> <chr> <chr> <chr>
#>  1     A     1     B     5
#>  2     A     2     B     5
#>  3     A     3     B     5
#>  4     A     4     B     5
#>  5     A     5     B     5
#>  6     A     6     B     5
#>  7     A     7     B     5
#>  8     A     8     B     5
#>  9     A     9     B     5
#> 10     A    10     B     5
#> 11     A    11     B     5
#> 12     A    12     B     5
#> 13     A    13     B     5
#> 14     A    14     B     5
#> 15     A    15     B     5
#> 16     A    16     B     5
#> 17     A    17     B     5
#> 18     A    18     B     5
#> 19     A    19     B     5
#> 20     A    20     B     5
#> # ... with 480 more rows
…
