dplyr包中的distinct()函数 | Leo Lee
…
2
3
4
5
6
7
8
9
10
11
12
13
14

#> # A tibble: 100 x 2
#>        x     y
#>    <int> <int>
#>  1     2     9
#>  2     6     7
#>  3     2    10
#>  4     6     9
#>  5     7     8
#>  6    10     1
#>  7     7     9
#>  8     9     9
#>  9     8     2
#> 10     3     1
#> # ... with 90 more rows
…
# 以全部两个变量去重，返回去重后的行数
distinct(df)
#> # A tibble: 62 x 2
#>        x     y
#>    <int> <int>
#>  1     2     9
#>  2     6     7
#>  3     2    10
#>  4     6     9
#>  5     7     8
#>  6    10     1
#>  7     7     9
#>  8     9     9
#>  9     8     2
#> 10     3     1
#> # ... with 52 more rows
# 和`distinct(df)`结果一样
distinct(df, x, y)
#> # A tibble: 62 x 2
#>        x     y
#>    <int> <int>
#>  1     2     9
#>  2     6     7
#>  3     2    10
#>  4     6     9
#>  5     7     8
#>  6    10     1
#>  7     7     9
#>  8     9     9
#>  9     8     2
#> 10     3     1
#> # ... with 52 more rows
…
