用ggplot2绘制美观的柱状图 | Leo Lee
…
2
3
4
5
6
7
8
9
10
11
12
13
14

#> # A tibble: 725,049 x 2
#>                   book            word
#>                 <fctr>           <chr>
#>  1 Sense & Sensibility       sense and
#>  2 Sense & Sensibility and sensibility
#>  3 Sense & Sensibility  sensibility by
#>  4 Sense & Sensibility         by jane
#>  5 Sense & Sensibility     jane austen
#>  6 Sense & Sensibility     austen 1811
#>  7 Sense & Sensibility    1811 chapter
#>  8 Sense & Sensibility       chapter 1
#>  9 Sense & Sensibility           1 the
#> 10 Sense & Sensibility      the family
#> # ... with 725,039 more rows
…
2
3
4
5
6
7
8
9
10
11
12
13
14

#> # A tibble: 73,576 x 2
#>                   book    word
#>                 <fctr>   <chr>
#>  1 Sense & Sensibility   rival
#>  2 Sense & Sensibility   rival
#>  3   Pride & Prejudice   rival
#>  4   Pride & Prejudice  _near_
#>  5   Pride & Prejudice  _near_
#>  6 Sense & Sensibility growing
#>  7 Sense & Sensibility growing
#>  8 Sense & Sensibility growing
#>  9 Sense & Sensibility growing
#> 10 Sense & Sensibility growing
#> # ... with 73,566 more rows
…
2
3
4
5
6
7
8
9
10
11
12
13
14

#> # A tibble: 30 x 4
#>                   book      word     n    n2
#>                 <fctr>     <chr> <int> <int>
#>  1 Sense & Sensibility    elinor   623  -623
#>  2   Pride & Prejudice elizabeth   597   597
#>  3 Sense & Sensibility  marianne   492  -492
#>  4   Pride & Prejudice     darcy   373   373
#>  5   Pride & Prejudice    bennet   294   294
#>  6   Pride & Prejudice      miss   283   283
#>  7   Pride & Prejudice      jane   264   264
#>  8   Pride & Prejudice   bingley   257   257
#>  9 Sense & Sensibility      time   239  -239
#> 10 Sense & Sensibility  dashwood   231  -231
#> # ... with 20 more rows
…
