tibbletime包：时序数据处理的倚天剑 | Leo Lee
…
# Facebook stock prices. Comes with the package
data("FB")
FB
#> # A tibble: 1,008 x 8
#>    symbol date        open  high   low close    volume adjusted
#>    <chr>  <date>     <dbl> <dbl> <dbl> <dbl>     <dbl>    <dbl>
#>  1 FB     2013-01-02  27.4  28.2  27.4  28.0  69846400     28.0
#>  2 FB     2013-01-03  27.9  28.5  27.6  27.8  63140600     27.8
#>  3 FB     2013-01-04  28.0  28.9  27.8  28.8  72715400     28.8
#>  4 FB     2013-01-07  28.7  29.8  28.6  29.4  83781800     29.4
#>  5 FB     2013-01-08  29.5  29.6  28.9  29.1  45871300     29.1
#>  6 FB     2013-01-09  29.7  30.6  29.5  30.6 104787700     30.6
#>  7 FB     2013-01-10  30.6  31.5  30.3  31.3  95316400     31.3
#>  8 FB     2013-01-11  31.3  32.0  31.1  31.7  89598000     31.7
#>  9 FB     2013-01-14  32.1  32.2  30.6  31.0  98892800     31.0
#> 10 FB     2013-01-15  30.6  31.7  29.9  30.1 173242600     30.1
#> # ... with 998 more rows
…
# Facebook, Amazon, Netify, Google
data("FANG")
FANG
#> # A tibble: 4,032 x 8
#>    symbol date        open  high   low close    volume adjusted
#>    <chr>  <date>     <dbl> <dbl> <dbl> <dbl>     <dbl>    <dbl>
#>  1 FB     2013-01-02  27.4  28.2  27.4  28.0  69846400     28.0
#>  2 FB     2013-01-03  27.9  28.5  27.6  27.8  63140600     27.8
#>  3 FB     2013-01-04  28.0  28.9  27.8  28.8  72715400     28.8
#>  4 FB     2013-01-07  28.7  29.8  28.6  29.4  83781800     29.4
#>  5 FB     2013-01-08  29.5  29.6  28.9  29.1  45871300     29.1
#>  6 FB     2013-01-09  29.7  30.6  29.5  30.6 104787700     30.6
#>  7 FB     2013-01-10  30.6  31.5  30.3  31.3  95316400     31.3
#>  8 FB     2013-01-11  31.3  32.0  31.1  31.7  89598000     31.7
#>  9 FB     2013-01-14  32.1  32.2  30.6  31.0  98892800     31.0
#> 10 FB     2013-01-15  30.6  31.7  29.9  30.1 173242600     30.1
#> # ... with 4,022 more rows
…
2
3
4
5
6
7
8
9
10
11
12
13
14

#> # A tibble: 1,008 x 11
#>    symb~ date        open  high   low close volume adju~  rm10  rm20  rm30
#>    <chr> <date>     <dbl> <dbl> <dbl> <dbl>  <dbl> <dbl> <dbl> <dbl> <dbl>
#>  1 FB    2013-01-02  27.4  28.2  27.4  28.0 6.98e7  28.0  NA    NA    NA  
#>  2 FB    2013-01-03  27.9  28.5  27.6  27.8 6.31e7  27.8  27.9  NA    NA  
#>  3 FB    2013-01-04  28.0  28.9  27.8  28.8 7.27e7  28.8  28.3  28.2  NA  
#>  4 FB    2013-01-07  28.7  29.8  28.6  29.4 8.38e7  29.4  29.1  28.6  28.5
#>  5 FB    2013-01-08  29.5  29.6  28.9  29.1 4.59e7  29.1  29.2  29.1  28.8
#>  6 FB    2013-01-09  29.7  30.6  29.5  30.6 1.05e8  30.6  29.8  29.7  29.5
#>  7 FB    2013-01-10  30.6  31.5  30.3  31.3 9.53e7  31.3  30.9  30.3  30.1
#>  8 FB    2013-01-11  31.3  32.0  31.1  31.7 8.96e7  31.7  31.5  31.2  30.7
#>  9 FB    2013-01-14  32.1  32.2  30.6  31.0 9.89e7  31.0  31.3  31.3  31.1
#> 10 FB    2013-01-15  30.6  31.7  29.9  30.1 1.73e8  30.1  30.5  30.9  31.0
#> # ... with 998 more rows
…
# 计算移动平均后缺失值的处理问题
rolling_summary <- rollify(~summary_df(.x), window = 5, 
                           unlist = FALSE, na_value = data.frame())

FB_summarised <- mutate(FB, summary_list_col = rolling_summary(adjusted))
FB_summarised
#> # A tibble: 1,008 x 9
#>    symbol date        open  high   low close    volume adjusted summary_l~
#>    <chr>  <date>     <dbl> <dbl> <dbl> <dbl>     <dbl>    <dbl> <list>    
#>  1 FB     2013-01-02  27.4  28.2  27.4  28.0  69846400     28.0 <data.fra~
#>  2 FB     2013-01-03  27.9  28.5  27.6  27.8  63140600     27.8 <data.fra~
#>  3 FB     2013-01-04  28.0  28.9  27.8  28.8  72715400     28.8 <data.fra~
#>  4 FB     2013-01-07  28.7  29.8  28.6  29.4  83781800     29.4 <data.fra~
#>  5 FB     2013-01-08  29.5  29.6  28.9  29.1  45871300     29.1 <data.fra~
#>  6 FB     2013-01-09  29.7  30.6  29.5  30.6 104787700     30.6 <data.fra~
#>  7 FB     2013-01-10  30.6  31.5  30.3  31.3  95316400     31.3 <data.fra~
#>  8 FB     2013-01-11  31.3  32.0  31.1  31.7  89598000     31.7 <data.fra~
#>  9 FB     2013-01-14  32.1  32.2  30.6  31.0  98892800     31.0 <data.fra~
#> 10 FB     2013-01-15  30.6  31.7  29.9  30.1 173242600     30.1 <data.fra~
#> # ... with 998 more rows

FB_summarised %>% 
  tidyr::unnest()
#> # A tibble: 5,020 x 10
#>    symbol date        open  high   low close    volume adjus~ roll~ rolle~
#>    <chr>  <date>     <dbl> <dbl> <dbl> <dbl>     <dbl>  <dbl> <fct>  <dbl>
#>  1 FB     2013-01-08  29.5  29.6  28.9  29.1  45871300   29.1 mean  28.6  
#>  2 FB     2013-01-08  29.5  29.6  28.9  29.1  45871300   29.1 sd     0.700
#>  3 FB     2013-01-08  29.5  29.6  28.9  29.1  45871300   29.1 min   27.8  
#>  4 FB     2013-01-08  29.5  29.6  28.9  29.1  45871300   29.1 max   29.4  
#>  5 FB     2013-01-08  29.5  29.6  28.9  29.1  45871300   29.1 medi~ 28.8  
#>  6 FB     2013-01-09  29.7  30.6  29.5  30.6 104787700   30.6 mean  29.1  
#>  7 FB     2013-01-09  29.7  30.6  29.5  30.6 104787700   30.6 sd     1.03 
#>  8 FB     2013-01-09  29.7  30.6  29.5  30.6 104787700   30.6 min   27.8  
#>  9 FB     2013-01-09  29.7  30.6  29.5  30.6 104787700   30.6 max   30.6  
#> 10 FB     2013-01-09  29.7  30.6  29.5  30.6 104787700   30.6 medi~ 29.1  
#> # ... with 5,010 more rows
…
# Facebook, Amazon, Netflix and Google stocks
data(FANG)
FANG
#> # A tibble: 4,032 x 8
#>    symbol date        open  high   low close    volume adjusted
#>    <chr>  <date>     <dbl> <dbl> <dbl> <dbl>     <dbl>    <dbl>
#>  1 FB     2013-01-02  27.4  28.2  27.4  28.0  69846400     28.0
#>  2 FB     2013-01-03  27.9  28.5  27.6  27.8  63140600     27.8
#>  3 FB     2013-01-04  28.0  28.9  27.8  28.8  72715400     28.8
#>  4 FB     2013-01-07  28.7  29.8  28.6  29.4  83781800     29.4
#>  5 FB     2013-01-08  29.5  29.6  28.9  29.1  45871300     29.1
#>  6 FB     2013-01-09  29.7  30.6  29.5  30.6 104787700     30.6
#>  7 FB     2013-01-10  30.6  31.5  30.3  31.3  95316400     31.3
#>  8 FB     2013-01-11  31.3  32.0  31.1  31.7  89598000     31.7
#>  9 FB     2013-01-14  32.1  32.2  30.6  31.0  98892800     31.0
#> 10 FB     2013-01-15  30.6  31.7  29.9  30.1 173242600     30.1
#> # ... with 4,022 more rows
…
2
3
4
5
6
7
8
9
10
11
12
13
14

#> # A tibble: 1,008 x 9
#>    symbol date        open  high   low close    volume adjusted roll_lm  
#>    <chr>  <date>     <dbl> <dbl> <dbl> <dbl>     <dbl>    <dbl> <list>   
#>  1 FB     2013-01-02  27.4  28.2  27.4  28.0  69846400     28.0 <lgl [1]>
#>  2 FB     2013-01-03  27.9  28.5  27.6  27.8  63140600     27.8 <lgl [1]>
#>  3 FB     2013-01-04  28.0  28.9  27.8  28.8  72715400     28.8 <lgl [1]>
#>  4 FB     2013-01-07  28.7  29.8  28.6  29.4  83781800     29.4 <lgl [1]>
#>  5 FB     2013-01-08  29.5  29.6  28.9  29.1  45871300     29.1 <S3: lm> 
#>  6 FB     2013-01-09  29.7  30.6  29.5  30.6 104787700     30.6 <S3: lm> 
#>  7 FB     2013-01-10  30.6  31.5  30.3  31.3  95316400     31.3 <S3: lm> 
#>  8 FB     2013-01-11  31.3  32.0  31.1  31.7  89598000     31.7 <S3: lm> 
#>  9 FB     2013-01-14  32.1  32.2  30.6  31.0  98892800     31.0 <S3: lm> 
#> 10 FB     2013-01-15  30.6  31.7  29.9  30.1 173242600     30.1 <S3: lm> 
#> # ... with 998 more rows
…
